-------------------------------------------------------------------------------
Test set: org.springframework.samples.petclinic.service.ClinicServiceJpaTests
-------------------------------------------------------------------------------
Tests run: 11, Failures: 0, Errors: 0, Skipped: 0, Time elapsed: 1.884 sec
